-----------------
film
        title
        year
-----------------
cinema
        name     str
        street   str
        postcode str
        city     str 
        country  str

-----------------
room
        name
        capacity

-----------------
seance
        cancer
        
-----------------

------------------------------------------------

migration
modele
controleur
vues